GGplot2 Extension
…
 [1] 33.09286 32.16100 31.26635 30.41403 29.60168 28.82979 28.09612 27.39752
 [9] 26.73611 26.11707 25.52830 24.99810 24.53340 24.09418 23.64634 23.21696
[17] 22.80828 22.40978 22.01095 21.60128 21.17025 20.70708 20.19083 19.63934
[25] 19.08893 18.57596 18.13676 17.80767 17.58594 17.40438 17.26494 17.17248
[33] 17.13186 17.14795 17.22433 17.35357 17.53353 17.76418 18.04546 18.37732
[41] 18.75972 19.19262 19.67595 20.20968 20.79376 21.42814 22.11278 22.84761
[49] 23.63261 24.46771

grid

# A tibble: 50 x 2
   displ   hwy
   <dbl> <dbl>
 1  1.6   33.1
 2  1.71  32.2
 3  1.82  31.3
 4  1.93  30.4
 5  2.04  29.6
 6  2.15  28.8
 7  2.26  28.1
 8  2.37  27.4
 9  2.48  26.7
10  2.59  26.1
#  with 40 more rows
…
