Data Analysis
…
To create new variables use mutate(). Like filter() it takes a data frame as its first argument and returns a data frame. Its second and subsequent arguments are named expressions that generate new variables. Like filter() you can refer to variables just by their name, you dont need to also include the name of the dataset.

library(ggplot2)
library(dplyr)
library(tidyr)
data(economics)

diamonds_ok2 <- mutate(diamonds_ok,
sam = x - y,
size = sqrt(x ^ 2 + y ^ 2)
)
diamonds_ok2

# A tibble: 53,930 x 12
   carat cut     color clarity depth table price     x     y     z     sam  size
   <dbl> <ord>   <ord> <ord>   <dbl> <dbl> <int> <dbl> <dbl> <dbl>   <dbl> <dbl>
 1 0.23  Ideal   E     SI2      61.5    55   326  3.95  3.98  2.43 -0.0300  5.61
 2 0.21  Premium E     SI1      59.8    61   326  3.89  3.84  2.31  0.05    5.47
 3 0.23  Good    E     VS1      56.9    65   327  4.05  4.07  2.31 -0.02    5.74
 4 0.290 Premium I     VS2      62.4    58   334  4.2   4.23  2.63 -0.03    5.96
 5 0.31  Good    J     SI2      63.3    58   335  4.34  4.35  2.75 -0.0100  6.14
 6 0.24  Very G J     VVS2     62.8    57   336  3.94  3.96  2.48 -0.02    5.59
 7 0.24  Very G I     VVS1     62.3    57   336  3.95  3.98  2.47 -0.0300  5.61
 8 0.26  Very G H     SI1      61.9    55   337  4.07  4.11  2.53 -0.04    5.78
 9 0.22  Fair    E     VS2      65.1    61   337  3.87  3.78  2.49  0.09    5.41
10 0.23  Very G H     VS1      59.4    61   338  4     4.05  2.39 -0.0500  5.69
#  with 53,920 more rows
…
You might be surprised by this pattern: why do diamonds with better clarity have lower prices? Well see why this is the case and what to do about it in Sect. 11.2.

Supply additional variables to group by() to create groups based on more than one variable. The next example shows how we can compute (by hand) a frequency polygon that shows how cut and depth interact. The special summary function n() counts the number of observations in each group.

library(ggplot2)
library(dplyr)
library(tidyr)
library(gridExtra)
data(economics)

cut_depth <- summarise(group_by(diamonds, cut, depth), n = n())
cut_depth <- filter(cut_depth, depth > 55, depth < 70)
cut_depth

# A tibble: 455 x 3
# Groups:   cut [5]
   cut   depth     n
   <ord> <dbl> <int>
 1 Fair   55.1     3
 2 Fair   55.2     6
 3 Fair   55.3     5
 4 Fair   55.4     2
 5 Fair   55.5     3
 6 Fair   55.6     4
 7 Fair   55.8     7
 8 Fair   55.9     9
 9 Fair   56       5
10 Fair   56.1     5
#  with 445 more rows
…
summarise(
group_by(
diamonds,
cut,
depth
),
n = n()
),
depth > 55,
depth < 70
),
prop = n / sum(n)
)

# A tibble: 455 x 4
# Groups:   cut [5]
   cut   depth     n    prop
   <ord> <dbl> <int>   <dbl>
 1 Fair   55.1     3 0.00192
 2 Fair   55.2     6 0.00384
 3 Fair   55.3     5 0.00320
 4 Fair   55.4     2 0.00128
 5 Fair   55.5     3 0.00192
 6 Fair   55.6     4 0.00256
 7 Fair   55.8     7 0.00448
 8 Fair   55.9     9 0.00575
 9 Fair   56       5 0.00320
10 Fair   56.1     5 0.00320
#  with 445 more rows
…
color_cut <- diamonds2 %>%
group_by(color, cut) %>%
summarise(
price = mean(price),
rel_price = mean(rel_price)
)
color_cut

# A tibble: 35 x 4
# Groups:   color [7]
   color cut       price rel_price
   <ord> <ord>     <dbl>     <dbl>
 1 D     Fair      3939.   -0.0755
 2 D     Good      3309.   -0.0472
 3 D     Very Good 3368.    0.104 
 4 D     Premium   3513.    0.109 
 5 D     Ideal     2595.    0.217 
 6 E     Fair      3516.   -0.172 
 7 E     Good      3314.   -0.0539
 8 E     Very Good 3101.    0.0655
 9 E     Premium   3344.    0.0845
10 E     Ideal     2564.    0.174 
#  with 25 more rows
…
models <- txhousing %>%
group_by(city) %>%
do(mod = lm(
log2(sales) ~ factor(month),
data = .,
na.action = na.exclude
))
models

Source: local data frame [46 x 2]
Groups: <by row>

# A tibble: 46 x 2
   city                  mod   
 * <chr>                 <list>
 1 Abilene               <lm>  
 2 Amarillo              <lm>  
 3 Arlington             <lm>  
 4 Austin                <lm>  
 5 Bay Area              <lm>  
 6 Beaumont              <lm>  
 7 Brazoria County       <lm>  
 8 Brownsville           <lm>  
 9 Bryan-College Station <lm>  
10 Collin County         <lm>  
#  with 36 more rows
…
Well begin by looking at how well the model fit to each city with glance():

library(ggplot2)
library(dplyr)
library(tidyr)
library(gridExtra)
library(Lahman)
library(broom)
data(txhousing)

model_sum <- models %>% glance(mod)
model_sum

# A tibble: 46 x 12
# Groups:   city [46]
   city  r.squared adj.r.squared sigma statistic  p.value    df logLik   AIC
   <chr>     <dbl>         <dbl> <dbl>     <dbl>    <dbl> <int>  <dbl> <dbl>
 1 Abil     0.530         0.500 0.282     17.9  1.50e-23    12  -22.2  70.5
 2 Amar     0.449         0.415 0.302     13.0  7.41e-18    12  -35.0  95.9
 3 Arli     0.513         0.483 0.267     16.8  2.75e-22    12  -12.5  50.9
 4 Aust     0.487         0.455 0.310     15.1  2.04e-20    12  -40.3 107. 
 5 Bay      0.555         0.527 0.265     19.9  1.45e-25    12  -10.5  47.0
 6 Beau     0.430         0.395 0.275     12.0  1.18e-16    12  -18.0  62.1
 7 Braz     0.508         0.475 0.292     15.1  6.48e-20    12  -26.3  78.5
 8 Brow     0.171         0.119 0.420      3.25 4.59e- 4    12  -95.7 217. 
 9 Brya     0.651         0.629 0.406     29.7  1.73e-34    12  -90.6 207. 
10 Coll     0.601         0.576 0.266     24.0  1.56e-29    12  -11.4  48.8
#  with 36 more rows, and 3 more variables: BIC <dbl>, deviance <dbl>,
#   df.residual <int>
…
The model fit summaries suggest that there are some important differences in seasonality between the different cities. Lets dive into those differences by using tidy() to extract detail about each individual coefficient:

library(ggplot2)
library(dplyr)
library(tidyr)
library(gridExtra)
library(Lahman)
library(broom)
data(txhousing)

coefs <- models %>% tidy(mod)
coefs

# A tibble: 552 x 6
# Groups:   city [46]
   city    term            estimate std.error statistic   p.value
   <chr>   <chr>              <dbl>     <dbl>     <dbl>     <dbl>
 1 Abilene (Intercept)        6.54     0.0704     92.9  7.90e-151
 2 Abilene factor(month)2     0.354    0.0996      3.55 4.91e-  4
 3 Abilene factor(month)3     0.675    0.0996      6.77 1.83e- 10
 4 Abilene factor(month)4     0.749    0.0996      7.52 2.76e- 12
 5 Abilene factor(month)5     0.916    0.0996      9.20 1.06e- 16
 6 Abilene factor(month)6     1.00     0.0996     10.1  4.37e- 19
 7 Abilene factor(month)7     0.954    0.0996      9.58 9.81e- 18
 8 Abilene factor(month)8     0.934    0.101       9.22 9.26e- 17
 9 Abilene factor(month)9     0.604    0.101       5.96 1.34e-  8
10 Abilene factor(month)10    0.608    0.101       6.01 1.06e-  8
#  with 542 more rows
…
library(ggplot2)
library(dplyr)
library(tidyr)
library(gridExtra)
library(Lahman)
library(broom)
data(txhousing)

months <- coefs %>%
filter(grepl("factor", term)) %>%
tidyr::extract(term, "month", "(\\d+)", convert = TRUE)
months

# A tibble: 506 x 6
# Groups:   city [46]
   city    month estimate std.error statistic  p.value
   <chr>   <int>    <dbl>     <dbl>     <dbl>    <dbl>
 1 Abilene     2    0.354    0.0996      3.55 4.91e- 4
 2 Abilene     3    0.675    0.0996      6.77 1.83e-10
 3 Abilene     4    0.749    0.0996      7.52 2.76e-12
 4 Abilene     5    0.916    0.0996      9.20 1.06e-16
 5 Abilene     6    1.00     0.0996     10.1  4.37e-19
 6 Abilene     7    0.954    0.0996      9.58 9.81e-18
 7 Abilene     8    0.934    0.101       9.22 9.26e-17
 8 Abilene     9    0.604    0.101       5.96 1.34e- 8
 9 Abilene    10    0.608    0.101       6.01 1.06e- 8
10 Abilene    11    0.419    0.101       4.14 5.45e- 5
#  with 496 more rows
…
Extracting observation-level data is the job of the augment() function. This adds one row for each observation. It includes the variables used in the original model, the residuals, and a number of common influence statistics (see?augment.lm for more details):

library(ggplot2)
library(dplyr)
library(tidyr)
library(gridExtra)
library(Lahman)
library(broom)
data(txhousing)

obs_sum <- models %>% augment(mod)
obs_sum

# A tibble: 8,034 x 13
# Groups:   city [46]
   city  log2.sales. factor.month. .fitted .se.fit .resid   .hat .sigma .cooksd
   <chr>       <dbl> <fct>           <dbl>   <dbl>  <dbl>  <dbl>  <dbl>   <dbl>
 1 Abil        6.17 1                6.54  0.0704 -0.372 0.0625  0.281 0.0103 
 2 Abil        6.61 2                6.90  0.0704 -0.281 0.0625  0.282 0.00590
 3 Abil        7.02 3                7.22  0.0704 -0.194 0.0625  0.282 0.00282
 4 Abil        6.61 4                7.29  0.0704 -0.676 0.0625  0.278 0.0341 
 5 Abil        7.14 5                7.46  0.0704 -0.319 0.0625  0.281 0.00760
 6 Abil        7.29 6                7.54  0.0704 -0.259 0.0625  0.282 0.00501
 7 Abil        7.25 7                7.50  0.0704 -0.248 0.0625  0.282 0.00459
 8 Abil        7.03 8                7.48  0.0727 -0.442 0.0667  0.280 0.0157 
 9 Abil        6.70 9                7.15  0.0727 -0.445 0.0667  0.280 0.0159 
10 Abil        6.66 10               7.15  0.0727 -0.492 0.0667  0.280 0.0195 
#  with 8,024 more rows, and 4 more variables: .std.resid <dbl>,
#   .rownames <chr>, `log2(sales)` <dbl>, `factor(month)` <fct>
…
library(ggplot2)
library(dplyr)
library(tidyr)
library(gridExtra)
library(Lahman)
library(broom)
data(txhousing)

obs_sum %>%
filter(abs(.std.resid) > 2) %>%
group_by(city) %>%
summarise(n = n(), avg = mean(abs(.std.resid))) %>%
arrange(desc(n))

# A tibble: 43 x 3
   city                      n   avg
   <chr>                 <int> <dbl>
 1 Texarkana                12  2.43
 2 Harlingen                11  2.73
 3 Waco                     11  2.96
 4 Victoria                 10  2.49
 5 Brazoria County           9  2.31
 6 Brownsville               9  2.48
 7 Bryan-College Station     9  2.27
 8 Killeen-Fort Hood         9  2.23
 9 Laredo                    9  2.87
10 Nacogdoches               9  2.15
#  with 33 more rows
…
